<?xml version="1.0" encoding="UTF-8"?>
<svg width="160px" height="157px" viewBox="0 0 160 157" version="1.1" xmlns="http://www.w3.org/2000/svg" xmlns:xlink="http://www.w3.org/1999/xlink">
    <title>birthday-celebration-christmas-party-trumpet-xmas-svgrepo-com</title>
    <g id="📔-Scrapbook" stroke="none" stroke-width="1" fill="none" fill-rule="evenodd">
        <g id="Artboard" transform="translate(-534.000000, -337.000000)" fill="#124E5D" fill-rule="nonzero">
            <g id="birthday-celebration-christmas-party-trumpet-xmas-svgrepo-com" transform="translate(534.000000, 337.000000)">
                <path d="M126.646663,68.1081426 L126.304536,66.9106981 L125.734324,66.2264441 L125.05007,65.4281477 C124.082063,64.4173688 122.743234,63.8457817 121.343694,63.8457817 C119.944154,63.8457817 118.605326,64.4173688 117.637318,65.4281477 L116.953064,66.2264441 L116.496895,67.1387828 C116.472426,67.4804723 116.472426,67.8234743 116.496895,68.1651638 C116.445284,68.5053444 116.445284,68.8513642 116.496895,69.1915448 C116.478773,69.872804 116.595028,70.5509606 116.839022,71.1872857 C117.105219,71.8257436 117.492483,72.4066393 117.979445,72.8979207 C118.456734,73.4017548 119.04143,73.7915518 119.69008,74.0383441 C120.343877,74.2968012 121.039833,74.4321259 121.742842,74.4374923 L122.769223,74.4374923 L123.795604,74.0953653 L124.707943,73.6391959 C124.91644,73.3250482 125.070645,72.9780868 125.164112,72.6128149 C125.667947,72.1355257 126.057744,71.5508302 126.304536,70.9021799 C126.568026,70.2698045 126.703684,69.5915122 126.703684,68.906439 C126.700012,68.6394664 126.680974,68.3729267 126.646663,68.1081426 L126.646663,68.1081426 Z" id="Path"></path>
                <path d="M137.138558,47.0673315 L136.796431,46.0409505 L136.340261,45.1286118 L135.656007,44.1022308 C134.688,43.0914519 133.349171,42.5198647 131.949631,42.5198647 C130.550091,42.5198647 129.211263,43.0914519 128.243256,44.1022308 L127.559002,44.9005271 L127.102832,45.8128658 C127.078363,46.1545553 127.078363,46.4975574 127.102832,46.8392469 C127.051221,47.1794274 127.051221,47.5254473 127.102832,47.8656279 C127.08471,48.5468871 127.200966,49.2250436 127.444959,49.8613688 C127.711157,50.4998267 128.09842,51.0807224 128.585383,51.5720038 C129.062672,52.0758379 129.647367,52.4656349 130.296018,52.7124272 C130.949815,52.9708843 131.64577,53.106209 132.34878,53.1115754 L133.375161,53.1115754 L134.401542,52.7694484 L135.31388,52.313279 C135.614196,52.1284425 135.883584,51.8975385 136.112177,51.629025 C136.616011,51.1517358 137.005808,50.5670403 137.2526,49.9183899 C137.32288,49.3082083 137.284266,48.690395 137.138558,48.0937126 C137.163831,47.7520523 137.163831,47.4089918 137.138558,47.0673315 Z" id="Path"></path>
                <path d="M110.851799,20.7235518 L110.509672,19.6971708 L110.053503,18.7848321 L109.369249,17.9865357 C108.401241,16.9757568 107.062413,16.4041697 105.662873,16.4041697 C104.263333,16.4041697 102.924504,16.9757568 101.956497,17.9865357 L101.272243,18.7848321 L100.816074,19.6971708 C100.791605,20.0388603 100.791605,20.3818623 100.816074,20.7235518 C100.764463,21.0637324 100.764463,21.4097523 100.816074,21.7499328 C100.797952,22.431192 100.914207,23.1093486 101.158201,23.7456737 C101.424398,24.3841317 101.811662,24.9650273 102.298624,25.4563088 C102.775913,25.9601429 103.360609,26.3499398 104.009259,26.5967321 C104.663056,26.8551892 105.359012,26.9905139 106.062021,26.9958803 L107.088402,26.9958803 L108.114783,26.6537533 L108.627974,26.1405628 C108.928289,25.9557262 109.197677,25.7248223 109.42627,25.4563088 C109.930104,24.9790196 110.319901,24.3943241 110.566693,23.7456737 C110.830183,23.1132984 110.965842,22.4350061 110.965842,21.7499328 C110.953309,21.4054529 110.91519,21.0623808 110.851799,20.7235518 L110.851799,20.7235518 Z" id="Path"></path>
                <path d="M89.753967,41.7643629 L89.41184,40.7379819 L88.9556706,39.8256432 L88.2714166,39.0273468 C87.3034093,38.0165679 85.9645807,37.4449808 84.5650407,37.4449808 C83.1655007,37.4449808 81.8266721,38.0165679 80.8586648,39.0273468 L80.1173896,39.8826643 L79.6612202,40.795003 C79.6367513,41.1366925 79.6367513,41.4796945 79.6612202,41.8213841 C79.6096092,42.1615646 79.6096092,42.5075845 79.6612202,42.8477651 C79.6430983,43.5290243 79.7593537,44.2071808 80.0033472,44.843506 C80.2695447,45.4819639 80.6568084,46.0628596 81.1437706,46.554141 C81.6210598,47.0579751 82.2057552,47.4477721 82.8544056,47.6945644 C83.5082028,47.9530215 84.2041584,48.0883462 84.9071677,48.0937126 L85.9335487,48.0937126 L86.9599298,47.7515856 L87.8722684,47.2954162 C88.1725842,47.1105797 88.4419721,46.8796757 88.6705648,46.6111622 C89.1743989,46.133873 89.5641959,45.5491775 89.8109882,44.9005271 C90.0744779,44.2681518 90.2101363,43.5898595 90.2101363,42.9047863 C90.0920023,42.5119387 89.939351,42.1303104 89.753967,41.7643629 L89.753967,41.7643629 Z" id="Path"></path>
                <path d="M58.1642398,20.7235518 L57.8221128,19.6971708 L57.3089223,18.8418533 L56.6246683,18.0435569 C55.6566609,17.032778 54.3178323,16.4611909 52.9182923,16.4611909 C51.5187523,16.4611909 50.1799238,17.032778 49.2119164,18.0435569 L48.5276624,18.8418533 L48.071493,19.754192 C48.0470241,20.0958815 48.0470241,20.4388835 48.071493,20.780573 C48.019882,21.1207536 48.019882,21.4667734 48.071493,21.806954 C48.0533711,22.4882132 48.1696265,23.1663698 48.41362,23.8026949 C48.6798175,24.4411528 49.0670812,25.0220485 49.5540434,25.5133299 C50.0313326,26.017164 50.616028,26.406961 51.2646784,26.6537533 C51.9184756,26.9122104 52.6144312,27.0475351 53.3174405,27.0529015 L54.3438215,27.0529015 L55.3702026,26.7107745 L56.2825412,26.2546051 C56.582857,26.0697686 56.8522449,25.8388647 57.0808376,25.5703511 C57.5846717,25.0930619 57.9744687,24.5083665 58.221261,23.8597161 C58.4847507,23.2273407 58.6204091,22.5490485 58.6204091,21.8639752 C58.5022751,21.4711276 58.3496238,21.0894994 58.1642398,20.7235518 L58.1642398,20.7235518 Z" id="Path"></path>
                <path d="M88.7846071,126.326755 C89.1908295,124.555577 88.6515102,122.700319 87.3590779,121.422935 L35.2987513,69.3055871 C34.0139493,68.0011627 32.1420148,67.4609683 30.3597734,67.8803192 C28.577532,68.2996701 27.1428708,69.6178871 26.5745126,71.3583492 L0.287754041,149.534371 C-0.367876244,151.431963 0.117016302,153.537322 1.53664779,154.956954 C2.95627927,156.376585 5.06163856,156.861478 6.95923072,156.205848 L85.0782312,130.147174 C86.9159952,129.641595 88.3349372,128.178993 88.7846071,126.326755 Z M46.4178791,132.028872 L24.7498352,110.303807 L27.6008936,101.750632 L55.0280755,129.177814 L46.4178791,132.028872 Z M20.9864381,121.479956 L35.2417302,135.735248 L13.8587921,142.862894 L20.9864381,121.479956 Z M66.1472033,125.471438 L31.3072696,90.5744829 L33.8732221,82.819604 L73.7880399,122.734422 L66.1472033,125.471438 Z" id="Shape"></path>
                <path d="M98.6492692,71.5864339 L101.101179,57.2741206 L115.413493,54.8222104 C117.600001,54.4445719 119.312442,52.7321309 119.69008,50.5456228 L122.141991,36.2333096 L136.454304,33.7813993 C139.320069,33.2932745 141.247527,30.5744097 140.759402,27.708645 C140.271277,24.8428802 137.552412,22.915422 134.686648,23.4035467 L116.72498,26.4826898 C114.538471,26.8603283 112.82603,28.5727693 112.448392,30.7592774 L109.996482,45.0715906 L95.6841685,47.5235009 C93.4976604,47.9011394 91.7852194,49.6135804 91.4075809,51.8000885 L88.9556706,66.1124017 L74.4152727,68.6213331 C71.6636798,69.0217297 69.7024811,71.4995214 69.9446673,74.2695263 C70.1868535,77.0395312 72.5482838,79.1393881 75.3276114,79.0562069 L76.2399501,79.0562069 L94.2016181,75.9770638 C96.4893143,75.6527094 98.2954244,73.8697546 98.6492692,71.5864339 L98.6492692,71.5864339 Z" id="Path"></path>
                <path d="M156.525755,77.5736565 L141.358124,71.8715397 C138.927749,70.9459535 136.186118,71.9407047 134.914732,74.2094076 L129.212615,84.4161967 L118.264551,80.3106726 C115.834176,79.3850863 113.092544,80.3798376 111.821159,82.6485405 L106.119042,92.7983085 L95.170978,88.6927843 C93.4088258,88.0408899 91.4327485,88.3786116 89.9871153,89.5787329 C88.5414821,90.7788542 87.845919,92.6590482 88.1624379,94.511064 C88.4789568,96.3630797 89.759471,97.905552 91.5216232,98.5574464 L106.689254,104.259563 C109.119629,105.18515 111.861261,104.190398 113.132646,101.921695 L118.834763,91.7149063 L129.782827,95.8204304 C132.213202,96.7460166 134.954834,95.7512654 136.226219,93.4825625 L141.928336,83.2757734 L152.8764,87.3812975 C155.600451,88.4047849 158.638432,87.0262056 159.661919,84.3021544 C160.685407,81.5781032 159.306827,78.5401229 156.582776,77.5166354 L156.525755,77.5736565 Z" id="Path"></path>
                <path d="M71.792299,49.8043476 L67.8008172,38.7992621 L78.0076063,33.0971453 C80.2697102,31.8486146 81.2858685,29.1388591 80.4024954,26.7107745 L76.4680348,15.5916467 L86.6748239,9.88952985 C89.2256696,8.48813933 90.1574871,5.28421889 88.7560966,2.73337323 C87.354706,0.182527582 84.1507856,-0.749289919 81.5999399,0.652100593 L67.4586902,8.63506415 C65.1965864,9.88359491 64.1804281,12.5933504 65.0638012,15.021435 L69.0552829,25.9694993 L58.8484938,31.6716161 C56.58639,32.9201469 55.5702317,35.6299024 56.4536047,38.057987 L60.4450865,49.0630724 L50.1812762,54.7651892 C47.6304306,56.1665798 46.6986131,59.3705002 48.1000036,61.9213459 C49.5013941,64.4721915 52.7053146,65.404009 55.2561602,64.0026185 L69.4544311,56.1907184 C71.6949287,54.9237346 72.6852724,52.2184056 71.792299,49.8043476 L71.792299,49.8043476 Z" id="Path"></path>
                <path d="M31.9345024,42.2205322 C30.5952514,42.6048335 29.4638939,43.5061193 28.7899748,44.725592 C28.1160556,45.9450648 27.9549412,47.3825375 28.3421688,48.7209454 L30.5089732,56.1907184 C31.1648961,58.4170948 33.2058563,59.9478149 35.526836,59.9541156 C36.0184721,60.0250771 36.5177503,60.0250771 37.0093864,59.9541156 C38.3486374,59.5698143 39.4799949,58.6685285 40.153914,57.4490558 C40.8278332,56.229583 40.9889476,54.7921102 40.60172,53.4537024 L38.4349156,45.9839293 C38.0876978,44.6131257 37.2017705,43.4405548 35.9779761,42.7320422 C34.7541816,42.0235297 33.2961791,41.8390885 31.9345024,42.2205322 L31.9345024,42.2205322 Z" id="Path"></path>
                <path d="M72.476553,96.8468114 C73.559851,96.8434805 74.6155526,96.5048592 75.4986749,95.8774515 L78.577818,93.7106471 C80.1158815,92.6207612 80.9556636,90.7931178 80.7808263,88.9161728 C80.6059891,87.0392277 79.4430945,85.3981335 77.7301938,84.6110745 C76.017293,83.8240155 74.0146165,84.0105646 72.476553,85.1004507 L69.3974099,87.2672551 C67.4858314,88.5709035 66.6540876,90.9729885 67.3502142,93.1795785 C68.0463408,95.3861686 70.1059257,96.8761082 72.4195319,96.8468114 L72.476553,96.8468114 Z" id="Path"></path>
                <path d="M50.7514879,69.8757988 C48.7069068,71.9237647 48.7069068,75.2405849 50.7514879,77.2885507 L52.9182923,79.4553551 C54.2230684,80.870857 56.1983386,81.457981 58.0644469,80.9849844 C59.9305553,80.5119878 61.3876769,79.0548662 61.8606735,77.1887578 C62.3336701,75.3226495 61.7465461,73.3473793 60.3310442,72.0426032 L58.1642398,69.8757988 C56.116274,67.8312177 52.7994538,67.8312177 50.7514879,69.8757988 Z" id="Path"></path>
                <path d="M108.627974,123.076549 L109.540312,123.076549 C112.453315,123.249754 114.955181,121.02871 115.128387,118.115707 C115.301592,115.202704 113.080548,112.700838 110.167545,112.527633 L97.22374,110.531892 C94.3579752,110.043767 91.6391104,111.971225 91.1509856,114.83699 C90.6628608,117.702755 92.5903189,120.42162 95.4560838,120.909744 L108.627974,123.076549 Z" id="Path"></path>
            </g>
        </g>
    </g>
</svg>