<?xml version="1.0" encoding="UTF-8"?>
<svg width="48px" height="48px" viewBox="0 0 48 48" version="1.1" xmlns="http://www.w3.org/2000/svg" xmlns:xlink="http://www.w3.org/1999/xlink">
    <title>Icon</title>
    <g id="🖥-Website" stroke="none" stroke-width="1" fill="none" fill-rule="evenodd">
        <g id="Home--Redesign" transform="translate(-839.000000, -3743.000000)" fill="#FEFEFE" fill-rule="nonzero">
            <g id="Industries-Section" transform="translate(0.000000, 3643.000000)">
                <g id="Group-4" transform="translate(811.000000, 80.000000)">
                    <g id="Group-17" transform="translate(20.000000, 20.000000)">
                        <g id="Icon" transform="translate(8.000000, 0.000000)">
                            <g id="Camada-1" transform="translate(3.750000, 3.750000)">
                                <path d="M7.94598398,14.2371189 C8.4326657,14.4678473 8.96072064,14.5983584 9.49879502,14.6209169 L9.49879502,15.4981667 C9.470356,15.5684949 9.470356,15.6471459 9.49879502,15.7174741 C9.56909304,15.7459455 9.64771023,15.7459455 9.71800826,15.7174741 L10.5035527,15.7174741 C10.5738507,15.7459455 10.6524679,15.7459455 10.722766,15.7174741 C10.751205,15.6471459 10.751205,15.5684949 10.722766,15.4981667 L10.722766,14.6209169 C11.4972587,14.5730257 12.237746,14.2856379 12.841888,13.7984839 C13.1053285,13.575491 13.3133887,13.2943402 13.4496936,12.9771849 C13.5860188,12.6600295 13.6468641,12.315557 13.6274325,11.9708617 C13.6461961,11.5410557 13.5382088,11.1152187 13.3168702,10.7463651 C13.0718494,10.4009408 12.7370178,10.1291657 12.3486481,9.96048333 C11.7622375,9.70543472 11.1496347,9.51544933 10.5218104,9.39392915 C10.1703203,9.32773193 9.82269624,9.24231748 9.48051713,9.13807054 C9.24535375,9.05356734 9.0327999,8.91598892 8.85941295,8.73598677 C8.72490954,8.57838111 8.65333632,8.37661022 8.65845736,8.16943259 C8.64042237,7.99485744 8.67628995,7.81894579 8.76120218,7.66536988 C8.84611442,7.51179396 8.97602306,7.38794503 9.13341938,7.31044833 C9.46541712,7.11847844 9.84690483,7.02941899 10.2295261,7.05458972 C10.5636086,7.05136997 10.8921654,7.13986242 11.1794703,7.31044833 C11.304683,7.38201179 11.4133585,7.47925223 11.498372,7.59579092 C11.5833652,7.71234985 11.6427936,7.84553402 11.6727305,7.98667644 C11.7030317,8.0568629 11.7546065,8.11579037 11.8201478,8.15511585 C11.8856892,8.19446158 11.9619179,8.21226132 12.0380859,8.20598382 L13.2255213,8.20598382 C13.2933701,8.20598382 13.3584054,8.17903108 13.4063773,8.13103861 C13.4543491,8.08306639 13.4812903,8.01798293 13.4812903,7.95012521 C13.4539241,7.61057341 13.3407752,7.28355634 13.1524502,6.99975275 C12.9221447,6.6499747 12.616238,6.35641062 12.2573194,6.14076849 C11.8556308,5.92263561 11.4148564,5.78598869 10.9602571,5.73870497 L10.9602571,4.84316947 C10.9663902,4.80094825 10.9625848,4.75787652 10.9491446,4.71737655 C10.9357044,4.67689682 10.9129937,4.64008234 10.8828341,4.60993011 C10.8526948,4.57975762 10.8159164,4.55703714 10.7754338,4.54359114 C10.7349512,4.53014515 10.691898,4.52633815 10.6496949,4.5324739 L9.79107934,4.5324739 C9.72078131,4.50402267 9.64216412,4.50402267 9.5718661,4.5324739 C9.54342708,4.60280211 9.54342708,4.68145307 9.5718661,4.75178128 L9.5718661,5.62905128 C8.85378587,5.68364525 8.17347591,5.97259233 7.63542177,6.45146406 C7.40616885,6.66275244 7.22417935,6.9201703 7.10139565,7.20680889 C6.97859171,7.49342722 6.91778685,7.80280655 6.92296862,8.11459562 C6.90414422,8.42642519 6.95691328,8.73843702 7.07724778,9.02671585 C7.19758229,9.31499469 7.38226388,9.57188605 7.61716412,9.77772718 C8.26296268,10.2472434 9.00585873,10.5657757 9.79107934,10.7098139 C10.3878535,10.8682093 10.8384652,11.002244 11.1429348,11.1118977 C11.4012542,11.1928166 11.638381,11.3301521 11.8371303,11.5139612 C11.9102823,11.5885014 11.967464,11.6772166 12.0051533,11.774619 C12.0428628,11.8720417 12.0602703,11.9761469 12.0563638,12.0805356 C12.058651,12.2409965 12.0195044,12.3993312 11.9426886,12.5402104 C11.8658729,12.6810895 11.7540195,12.7997342 11.617917,12.8846829 C11.2165321,13.1061773 10.7599897,13.2076702 10.3025971,13.1770928 C9.87499975,13.1992665 9.45007422,13.0977533 9.07862619,12.8846829 C8.80632003,12.722926 8.59943374,12.4706719 8.49403731,12.1719036 C8.45327134,12.0996719 8.39714223,12.0372816 8.32961726,11.9891474 C8.25227527,11.9652119 8.16948837,11.9652119 8.09212614,11.9891474 L6.88643308,11.9891474 C6.82186335,11.9636932 6.75004723,11.9636932 6.68547749,11.9891474 C6.66298941,12.0479939 6.66298941,12.1130571 6.68547749,12.1719036 C6.70339104,12.5642269 6.8298789,12.9438736 7.05083289,13.268481 C7.26219251,13.6621407 7.57024479,13.995496 7.94598398,14.2371189 Z" id="Path"></path>
                                <path d="M10.1949539,20.3961934 C12.2110882,20.3961934 14.1819428,19.7980898 15.8582864,18.6775161 C17.5346301,17.5569223 18.8411855,15.9641999 19.612723,14.1007555 C20.3841998,12.2372908 20.5862079,10.1867972 20.1927981,8.20855557 C19.7994692,6.23031394 18.8286157,4.41318122 17.403001,2.98695428 C15.9773862,1.56072936 14.1610335,0.589454858 12.1836613,0.195958094 C10.2062688,-0.197537658 8.15665539,0.0044186161 6.29399058,0.776289353 C4.43132578,1.54815817 2.83928711,2.8552686 1.7191864,4.5323524 C0.599087717,6.20941595 0.00123543156,8.18111683 0.00123543156,10.1980967 C0.00606485911,12.9013284 1.08159366,15.4924359 2.99225058,17.4039134 C4.90288726,19.3153705 7.4929028,20.3913334 10.1949539,20.3961934 Z M10.1949539,1.82760011 C11.8445993,1.83123681 13.4561911,2.32368615 14.8263042,3.24283313 C16.1964375,4.16198011 17.2636599,5.46658562 17.8932856,6.99201726 C18.5229114,8.51742864 18.686704,10.1952617 18.3639767,11.8137218 C18.0412698,13.4321819 17.2465155,14.9187335 16.0800298,16.0856999 C14.9135644,17.2526864 13.4276509,18.047782 11.8098855,18.3706276 C10.1921201,18.6934934 8.5150073,18.5296305 6.99023045,17.8997343 C5.46547385,17.2698382 4.16140809,16.2021575 3.2426759,14.8314561 C2.32392346,13.4607343 1.83168145,11.8484505 1.82804632,10.1980967 C1.82565764,9.09819831 2.04042387,8.00864768 2.46004618,6.99201726 C2.87966849,5.97536658 3.49587427,5.05166336 4.27330198,4.2739018 C5.05070944,3.49616049 5.97403641,2.87969009 6.99023045,2.45988757 C8.00644473,2.04008506 9.09552767,1.82521041 10.1949539,1.82760011 Z" id="Shape"></path>
                                <path d="M32.5899038,30.1923279 C32.0035135,29.9365705 31.3910119,29.7466256 30.7629244,29.6257332 C30.340691,29.5256982 29.9257444,29.3975158 29.5207161,29.2417934 C29.2855122,29.157351 29.0729786,29.0198535 28.8997131,28.8398311 C28.7651085,28.6820837 28.6936567,28.4803938 28.6987171,28.2732365 C28.6916326,28.121159 28.7252331,27.9698916 28.7958753,27.8350267 C28.866315,27.7001618 28.9715697,27.5865593 29.1005068,27.5055594 C29.432464,27.3135895 29.8140125,27.224692 30.196573,27.249802 C30.5633453,27.234412 30.9262717,27.329992 31.2379877,27.5239869 C31.3630789,27.5954693 31.4717746,27.6926693 31.5567881,27.8093092 C31.6418015,27.9257467 31.7013109,28.0589916 31.7312681,28.200134 C31.7614276,28.2704015 31.8130429,28.3293289 31.8786247,28.3686139 C31.9442065,28.4078989 32.0203138,28.4257189 32.0966235,28.4194414 L33.2839779,28.4194414 C33.3517862,28.4194414 33.4169632,28.3925089 33.4649351,28.3445164 C33.512907,28.2965239 33.5398279,28.2315215 33.5398279,28.1634815 C33.5125021,27.8240917 33.3993533,27.4970544 33.2109068,27.2131496 C32.9805609,26.8634323 32.6747149,26.5698074 32.3158367,26.354145 C31.8879357,26.0902877 31.4080146,25.9220103 30.9090666,25.8608553 L30.9090666,24.9651983 C30.9153414,24.9230784 30.9114956,24.8799459 30.8979339,24.8394459 C30.8845746,24.7989459 30.8619044,24.7620909 30.8317448,24.7319185 C30.8015853,24.701746 30.7647462,24.679066 30.7242636,24.665701 C30.683781,24.6521335 30.6408694,24.6484885 30.5985651,24.6545635 L29.8130004,24.6545635 C29.7423583,24.6278335 29.6644293,24.6278335 29.5937872,24.6545635 C29.5654494,24.724831 29.5654494,24.8036034 29.5937872,24.8738709 L29.5937872,25.7328754 C28.8760308,25.7887654 28.1961257,26.0775302 27.6573024,26.5552274 C27.4281709,26.7666373 27.2462016,27.0240147 27.123337,27.310552 C27.0004723,27.5972918 26.9397484,27.9065092 26.9450111,28.218359 C26.9261867,28.5302088 26.9788141,28.8422611 27.0992498,29.130621 C27.2194831,29.4187783 27.4042862,29.6757507 27.6390852,29.8814905 C28.2851874,30.3504803 29.0280429,30.6690126 29.8130004,30.8135975 C30.4097138,30.9719524 30.8604875,31.1060073 31.1649166,31.2157623 C31.4231955,31.2965597 31.6602211,31.4338547 31.8589906,31.6177246 C31.9322641,31.6922445 31.9893446,31.7809395 32.0271958,31.8783419 C32.0648446,31.9759469 32.0822521,32.0800318 32.0782039,32.1843192 C32.0806328,32.3446991 32.0413647,32.5030541 31.9646502,32.643994 C31.8877333,32.7849339 31.7760013,32.9035988 31.6397774,32.9884463 C31.2383925,33.2099812 30.7819513,33.3114336 30.324498,33.2808561 C29.8970018,33.3031311 29.4719346,33.2014762 29.1005068,32.9884463 C28.8282613,32.8266489 28.6213953,32.5745365 28.5159381,32.2756467 C28.4746459,32.2037592 28.4187799,32.1415918 28.3515788,32.0929918 C28.2742571,32.0690968 28.1914702,32.0690968 28.1141484,32.0929918 L26.9814455,32.0929918 C26.9496666,32.0794243 26.9154589,32.0723368 26.8810486,32.0723368 C26.846436,32.0723368 26.8122282,32.0794243 26.7804494,32.0929918 C26.7579816,32.1517168 26.7579816,32.2169217 26.7804494,32.2756467 C26.7984642,32.6680915 26.9249723,33.0475762 27.1458048,33.3721836 C27.3978089,33.7366834 27.7368507,34.0319282 28.1323656,34.2311881 C28.6153229,34.4800604 29.1434183,34.6293029 29.6850754,34.6698028 L29.6850754,35.5472348 C29.6567376,35.6175023 29.6567376,35.6960722 29.6850754,35.7665422 C29.7557175,35.7930697 29.8336465,35.7930697 29.9042887,35.7665422 L30.6898534,35.7665422 C30.7321577,35.7726172 30.7752716,35.7687697 30.8155518,35.7554047 C30.8560344,35.7418372 30.8928736,35.7191572 30.9230331,35.6889848 C30.9531926,35.6588123 30.9758629,35.6219573 30.9894245,35.5814573 C31.0027838,35.5409573 31.0066296,35.4980274 31.0005573,35.4557049 L31.0005573,34.7246803 C31.7749893,34.6768903 32.5154159,34.389543 33.1196186,33.9023283 C33.3829578,33.6793759 33.5910384,33.3981036 33.7274647,33.0809887 C33.8636886,32.7638739 33.9246149,32.4194216 33.9051833,32.0747668 C33.9250197,31.644657 33.8169312,31.2185973 33.5944794,30.85025 C33.323246,30.5465002 32.976715,30.3194978 32.5899038,30.1923279 Z" id="Path"></path>
                                <path d="M30.3062808,20.1038038 C28.2902477,20.1038038 26.3193527,20.7019682 24.6429685,21.8224001 C22.9665844,22.9430345 21.6600087,24.5358986 20.8886129,26.3993025 C20.1169742,28.2627065 19.9151078,30.3132203 20.3084973,32.2914417 C20.7017857,34.2696631 21.6725583,36.086897 23.0981528,37.5131037 C24.5239497,38.9393104 26.3402012,39.9104999 28.3175734,40.3039571 C30.2949457,40.6976169 32.3445793,40.495522 34.2071834,39.723795 C36.0699899,38.9518654 37.6619679,37.6447286 38.7821212,35.9676246 C39.9020721,34.2905205 40.5,32.3189817 40.5,30.3018803 C40.5,28.9627486 40.2362559,27.6365768 39.7241511,26.3993025 C39.2118439,25.1620282 38.4608918,24.0377489 37.5144088,23.0908594 C36.5677234,22.1437674 35.4439266,21.3924929 34.2071834,20.8801681 C32.9704402,20.3676409 31.6450401,20.1038038 30.3062808,20.1038038 Z M30.3062808,38.6541906 C28.6549959,38.6541906 27.0409549,38.1643434 25.6679878,37.2464114 C24.2950206,36.3286819 23.2250657,35.0243801 22.5931325,33.4981385 C21.9611992,31.9718969 21.7960302,30.2925653 22.1180692,28.6725662 C22.4403107,27.0523646 23.2353888,25.5639905 24.4029068,24.3959711 C25.5704247,23.2279518 27.05816,22.4325323 28.6774637,22.1101524 C30.2969698,21.7879751 31.9755805,21.953215 33.501167,22.5854197 C35.0267535,23.2176243 36.3304954,24.2882412 37.2478309,25.6615954 C38.1653689,27.0351522 38.6550058,28.6500887 38.6550058,30.3018803 C38.6550058,31.3988222 38.4390312,32.4848291 38.0194291,33.4981385 C37.5998271,34.5114479 36.9848965,35.4322149 36.2096548,36.2077895 C35.4344132,36.983364 34.5140415,37.5985587 33.501167,38.0183409 C32.4882925,38.4381232 31.4025494,38.6541906 30.3062808,38.6541906 Z" id="Shape"></path>
                                <path d="M23.7478984,11.1301632 L37.2846701,11.1301632 L34.9281784,13.5243396 C34.7702963,13.7020332 34.6862949,13.9333286 34.6931769,14.1709419 C34.7002614,14.4085553 34.797622,14.6345047 34.9656248,14.8025998 C35.1336275,14.9706747 35.3595204,15.0681987 35.5971532,15.0751849 C35.8345836,15.0821914 36.0657392,14.9981337 36.2434578,14.8402243 L40.1892961,10.8560188 C40.272083,10.7715764 40.33726,10.6715617 40.3811836,10.5617865 C40.4251072,10.451991 40.4467654,10.3345816 40.4451461,10.2163622 C40.4668043,10.1016257 40.4668043,9.98383156 40.4451461,9.86911538 C40.3852319,9.74186445 40.2977895,9.62951751 40.1892961,9.54013406 L36.2250382,5.48282611 C36.0475221,5.3249167 35.8163665,5.240859 35.5787336,5.2478655 C35.3413032,5.25485174 35.1154104,5.35237569 34.9474076,5.52045059 C34.7794049,5.68854575 34.6818418,5.91451537 34.6749598,6.15210848 C34.6678753,6.38972185 34.7518767,6.62103747 34.9097588,6.79871087 L37.3213068,9.211173 L23.7478984,9.211173 C23.6126865,9.18397727 23.4730216,9.18715651 23.3392266,9.22048799 C23.2054317,9.25381948 23.0807453,9.31645269 22.9738712,9.40387189 C22.8671996,9.49129109 22.7813765,9.60132953 22.7222719,9.72602896 C22.6631673,9.85072839 22.632603,9.98699056 22.632603,10.124974 C22.632603,10.2629574 22.6631673,10.3992196 22.7222719,10.523919 C22.7813765,10.6486184 22.8671996,10.7586569 22.9738712,10.8460761 C23.0807453,10.9334953 23.2054317,10.9961487 23.3392266,11.02946 C23.4730216,11.0627915 23.6126865,11.0659707 23.7478984,11.038775 L23.7478984,11.1301632 Z" id="Path"></path>
                                <path d="M16.6964988,29.3879983 L3.15966634,29.3879983 L5.47974396,26.9756172 C5.63250502,26.8057198 5.71751847,26.5853999 5.71865198,26.35698 C5.71978549,26.1283577 5.63693787,25.9074303 5.48585683,25.7359129 C5.33479604,25.564598 5.12602731,25.4546406 4.89922358,25.4271006 C4.6724401,25.3995606 4.44345032,25.4562605 4.25577302,25.5866705 L0.273279765,29.6621832 C0.187840646,29.7456131 0.11956979,29.8448381 0.0723290335,29.954593 C0.024596616,30.0673854 0,30.1884804 0,30.3109928 C0,30.4335052 0.024596616,30.5546002 0.0723290335,30.6673926 C0.114121643,30.7755275 0.176119721,30.8747525 0.255011995,30.9598024 L4.23749513,34.9439877 C4.31095079,35.0673101 4.41191438,35.1720025 4.53249178,35.249965 C4.65306918,35.3279275 4.79000155,35.3769324 4.93262172,35.3931324 C5.07522165,35.4093324 5.21966354,35.3923224 5.35465275,35.3435199 C5.48964195,35.2947175 5.61153504,35.2153375 5.7108186,35.1116576 C5.81010216,35.0079776 5.88408409,34.8828327 5.92701588,34.7457403 C5.96992743,34.6086479 5.98063508,34.4636579 5.9582482,34.3217055 C5.93588157,34.1799556 5.88106814,34.0450907 5.79805858,33.9280458 C5.71506927,33.8107983 5.60613061,33.7144084 5.47974396,33.6463684 L3.15966634,31.2339873 L16.6964988,31.2339873 C16.9075143,31.1914623 17.0973169,31.0772524 17.2337028,30.9107975 C17.3700684,30.7441401 17.4445766,30.5353627 17.4445766,30.3201053 C17.4445766,30.1048479 17.3700684,29.8960705 17.2337028,29.7296156 C17.0973169,29.5629582 16.9075143,29.4487483 16.6964988,29.4064258 L16.6964988,29.3879983 Z" id="Path"></path>
                            </g>
                        </g>
                    </g>
                </g>
            </g>
        </g>
    </g>
</svg>