<?xml version="1.0" encoding="UTF-8"?>
<svg width="83px" height="24px" viewBox="0 0 83 24" version="1.1" xmlns="http://www.w3.org/2000/svg" xmlns:xlink="http://www.w3.org/1999/xlink">
    <title>Group 2</title>
    <defs>
        <linearGradient x1="60.1573701%" y1="73.8482673%" x2="33.5579439%" y2="-12.4529208%" id="linearGradient-1">
            <stop stop-color="#D6FFA1" offset="0%"></stop>
            <stop stop-color="#93E2A7" offset="32.64%"></stop>
            <stop stop-color="#00A3B5" offset="100%"></stop>
        </linearGradient>
        <linearGradient x1="-32.1721676%" y1="-58.9492675%" x2="80.1668869%" y2="88.793236%" id="linearGradient-2">
            <stop stop-color="#FF177B" offset="0%"></stop>
            <stop stop-color="#FFA976" offset="67.21%"></stop>
            <stop stop-color="#FFEC73" offset="100%"></stop>
        </linearGradient>
        <linearGradient x1="50.2353592%" y1="74.6634124%" x2="35.6294099%" y2="-29.3364075%" id="linearGradient-3">
            <stop stop-color="#63FFD4" offset="0%"></stop>
            <stop stop-color="#32A0BA" offset="48.54%"></stop>
            <stop stop-color="#1262A9" offset="83.49%"></stop>
            <stop stop-color="#064AA2" offset="100%"></stop>
        </linearGradient>
        <linearGradient x1="119.507988%" y1="41.6802366%" x2="-23.112411%" y2="56.3346348%" id="linearGradient-4">
            <stop stop-color="#FF4521" offset="0%"></stop>
            <stop stop-color="#D43E65" offset="34.11%"></stop>
            <stop stop-color="#9F36B9" offset="79.35%"></stop>
            <stop stop-color="#8A33DB" offset="100%"></stop>
        </linearGradient>
    </defs>
    <g id="🔶-Components" stroke="none" stroke-width="1" fill="none" fill-rule="evenodd">
        <g id="Artboard" transform="translate(-224.000000, -258.000000)">
            <g id="Group-2" transform="translate(224.000000, 258.000000)">
                <g id="icon-+-Google-play-+-Get-it-on" transform="translate(8.000000, 4.000000)">
                    <g id="google-play-icon" transform="translate(0.000000, 1.726171)">
                        <polygon id="Shape" points="6.77395143 6.31954286 8.75584989 4.33005714 6.77395143 6.31954286 0.384547461 -4.22265397e-16 6.77395143 6.31954286 0.384547461 12.6390857 6.77395143 6.31954286 8.78543046 8.30902857"></polygon>
                        <path d="M8.75584989,4.33005714 L0.97615894,0.117028571 C0.769094923,9.74458609e-17 0.562030905,-0.0292571429 0.384547461,0.0292571429 L6.77395143,6.31954286 L8.75584989,4.33005714 L8.75584989,4.33005714 Z" id="Shape" fill="url(#linearGradient-1)"></path>
                        <path d="M8.78543046,8.30902857 L11.4476821,6.87542857 C11.9801325,6.58285714 11.9801325,6.11474286 11.4476821,5.82217143 L8.78543046,4.35931429 L6.77395143,6.31954286 L8.78543046,8.30902857 L8.78543046,8.30902857 Z" id="Shape" fill="url(#linearGradient-2)"></path>
                        <path d="M0.384547461,-4.22265397e-16 C0.14790287,0.0877714286 0,0.321828571 0,0.672914286 L0,11.9661714 C0,12.3172571 0.14790287,12.5513143 0.384547461,12.6390857 L6.77395143,6.31954286 L0.384547461,-4.22265397e-16 L0.384547461,-4.22265397e-16 Z" id="Shape" fill="url(#linearGradient-3)"></path>
                        <path d="M0.384547461,12.6390857 C0.562030905,12.6976 0.769094923,12.6683429 0.97615894,12.5513143 L8.75584989,8.30902857 L6.77395143,6.31954286 L0.384547461,12.6390857 L0.384547461,12.6390857 Z" id="Shape" fill="url(#linearGradient-4)"></path>
                    </g>
                    <g id="Group" transform="translate(13.754967, 0.000000)" fill="#6C6C6C">
                        <g id="google-play" transform="translate(0.000000, 5.760000)">
                            <polyline id="Fill-3" points="49.9090396 9.94742857 53.2450331 2.34057143 52.1585226 2.34057143 50.6154971 6.13318668 50.5936867 6.13318668 49.007291 2.34057143 47.9205298 2.34057143 50.115612 7.2861099 48.8769298 9.94742857 49.9090396 9.94742857"></polyline>
                            <path d="M45.2582781,2.34057143 C43.9231609,2.34057143 43.282525,3.12872725 43.0981981,3.607812 L44.0098145,3.99107979 C44.1943918,3.50118493 44.726335,3.23510864 45.2800668,3.23510864 C46.029145,3.23510864 46.6695304,3.71419338 46.6695304,4.50234921 L46.6695304,4.65147969 C46.4631645,4.53428819 45.9422409,4.33184417 45.2257204,4.33184417 C43.9772568,4.33184417 42.8918322,4.97086952 42.8918322,6.15285757 C42.8918322,7.23927436 43.7926795,7.89942857 44.8783545,7.89942857 C45.7902213,7.89942857 46.3329336,7.44147269 46.6259532,7.00489136 L46.6695304,7.00489136 L46.6695304,7.72892354 L47.6247241,7.72892354 L47.6247241,4.57679161 C47.6247241,3.1073527 46.5608377,2.34057143 45.2582781,2.34057143 L45.2582781,2.34057143 Z M45.0411431,7.00489136 C44.5202195,7.00489136 43.93393,6.72800495 43.93393,6.17423212 C43.93393,5.69490169 44.3464113,5.14137455 45.3995286,5.14137455 C46.2460295,5.14137455 46.6695304,5.48189325 46.6695304,5.48189325 C46.6695304,6.33392704 45.8335481,7.00489136 45.0411431,7.00489136 L45.0411431,7.00489136 Z" id="Fill-2"></path>
                            <polygon id="Fill-1" points="41.4128035 0.292571429 42.3002208 0.292571429 42.3002208 7.89942857 41.4128035 7.89942857"></polygon>
                            <path d="M38.1186218,0.292571429 L35.4966887,0.292571429 L35.4966887,7.89942857 L36.4852743,7.89942857 L36.4852743,4.81844922 L38.1186218,4.81844922 C39.3969908,4.81844922 40.5253863,3.88361586 40.5253863,2.55563288 C40.5253863,1.22764989 39.3969908,0.292571429 38.1186218,0.292571429 L38.1186218,0.292571429 Z M38.1399404,3.88361586 L36.4852743,3.88361586 L36.4852743,1.22764989 L38.1399404,1.22764989 C39.0209416,1.22764989 39.5152344,1.94997655 39.5152344,2.55563288 C39.5152344,3.16104409 39.0209416,3.88361586 38.1399404,3.88361586 L38.1399404,3.88361586 Z" id="Fill-4"></path>
                            <path d="M28.5409895,5.30906441 C28.51113,4.32074563 29.3270418,3.81713907 29.9142794,3.81713907 C30.3721256,3.81713907 30.7600508,4.03999527 30.8894421,4.35950323 L28.5409895,5.30906441 L28.5409895,5.30906441 Z M30.003858,7.9440967 C31.2079438,7.9440967 31.9044175,7.22708112 32.1930597,6.81067916 L31.2975224,6.22931517 C30.9989271,6.65564876 30.5908467,6.93664136 30.003858,6.93664136 C29.4166204,6.93664136 28.9985869,6.67502756 28.7300999,6.16148937 L32.2428256,4.74707922 L32.1233875,4.45639723 C31.9044175,3.88496487 31.2378034,2.82882029 29.8744667,2.82882029 C28.5210832,2.82882029 27.3966228,3.86558607 27.3966228,5.38657961 C27.3966228,6.82036856 28.51113,7.9440967 30.003858,7.9440967 L30.003858,7.9440967 Z" id="Fill-5"></path>
                            <polygon id="Path" points="25.6849248 7.78906631 26.8392447 7.78906631 26.8392447 0.271303196 25.6849248 0.271303196"></polygon>
                            <path d="M22.3710139,2.82882029 C22.9978153,2.82882029 23.4954743,3.10012348 23.7542569,3.40049488 L23.7542569,3.40049488 L23.7940696,3.40049488 L23.7940696,2.98385068 L24.8886705,2.98385068 L24.8886705,7.57589951 C24.8886705,9.46509025 23.7443037,10.24 22.3909202,10.24 C21.1171622,10.24 20.3507674,9.40695385 20.0621252,8.72869586 L20.0621252,8.72869586 L21.0673963,8.3219833 C21.2465535,8.73838526 21.6842445,9.23254465 22.3909202,9.23254465 C23.256598,9.23254465 23.7940696,8.70931706 23.7940696,7.73092991 L23.7940696,7.73092991 L23.7940696,7.36273271 L23.7542569,7.36273271 C23.4954743,7.67279351 22.9978153,7.9440967 22.3710139,7.9440967 C21.0574431,7.9440967 19.8533573,6.83005796 19.8533573,5.39626901 C19.8533573,3.95279067 21.0574431,2.82882029 22.3710139,2.82882029 Z M22.4705457,3.83651787 C21.6742913,3.83651787 21.0076772,4.49515483 21.0076772,5.39626901 C21.0076772,6.28745156 21.6742913,6.93664136 22.4705457,6.93664136 C23.256598,6.93664136 23.8736951,6.28745156 23.8736951,5.39626901 C23.8736951,4.49515483 23.256598,3.83651787 22.4705457,3.83651787 Z" id="Path"></path>
                            <path d="M16.7385099,2.82882029 C18.1914252,2.82882029 19.3756047,3.90434367 19.3756047,5.38657961 C19.3756047,6.85912616 18.1914252,7.9440967 16.7385099,7.9440967 C15.2855946,7.9440967 14.1014151,6.85912616 14.1014151,5.38657961 C14.1014151,3.90434367 15.2855946,2.82882029 16.7385099,2.82882029 Z M16.7385099,3.83651787 C15.9422556,3.83651787 15.2557351,4.46608663 15.2557351,5.38657961 C15.2557351,6.29714096 15.9422556,6.93664136 16.7385099,6.93664136 C17.5345154,6.93664136 18.2212847,6.29714096 18.2212847,5.38657961 C18.2212847,4.46608663 17.5345154,3.83651787 16.7385099,3.83651787 Z" id="Path"></path>
                            <path d="M10.9865678,2.82882029 C12.4394831,2.82882029 13.6236625,3.90434367 13.6236625,5.38657961 C13.6236625,6.85912616 12.4394831,7.9440967 10.9865678,7.9440967 C9.53365247,7.9440967 8.34922418,6.85912616 8.34922418,5.38657961 C8.34922418,3.90434367 9.53365247,2.82882029 10.9865678,2.82882029 Z M10.9865678,3.83651787 C10.1903135,3.83651787 9.50379294,4.46608663 9.50379294,5.38657961 C9.50379294,6.29714096 10.1903135,6.93664136 10.9865678,6.93664136 C11.7825733,6.93664136 12.4693426,6.29714096 12.4693426,5.38657961 C12.4693426,4.46608663 11.7825733,3.83651787 10.9865678,3.83651787 Z" id="Path"></path>
                            <path d="M4.13977596,7.9440967 C5.3540638,7.9440967 6.26950743,7.55652071 6.98588749,6.83005796 C7.72242273,6.11304237 7.95134585,5.10558702 7.95134585,4.29167743 C7.95134585,4.03999527 7.93143949,3.80744967 7.89162677,3.61366168 L4.13977596,3.61366168 L4.13977596,4.69863222 L6.80673027,4.69863222 C6.72710483,5.30906441 6.51833691,5.75453457 6.19983518,6.06459537 C5.8116612,6.44248196 5.20451728,6.85912616 4.13977596,6.85912616 C2.49775026,6.85912616 1.214039,5.57067821 1.214039,3.97216947 C1.214039,2.37366073 2.49775026,1.08521278 4.13977596,1.08521278 C5.02560889,1.08521278 5.67231669,1.42409954 6.15006928,1.86012254 L6.93612159,1.09490218 C6.26950743,0.474780593 5.3836745,0 4.13977596,0 C1.89085517,0 0,1.78260734 0,3.97216947 C0,6.16148937 1.89085517,7.9440967 4.13977596,7.9440967 L4.13977596,7.9440967 Z" id="Path"></path>
                        </g>
                        <path d="M2.67611755,2.94171429 C2.64068231,2.9874288 2.59138185,3.03809496 2.52821468,3.09371429 C2.46504751,3.14933361 2.38377878,3.20114262 2.28440604,3.24914286 C2.18503331,3.2971431 2.06563375,3.33752365 1.92620378,3.37028571 C1.78677382,3.40304778 1.62308087,3.41942857 1.43512003,3.41942857 C1.22404926,3.41942857 1.03031384,3.38361941 0.853907975,3.312 C0.677502107,3.24038059 0.526134278,3.13676258 0.399799945,3.00114286 C0.273465612,2.86552313 0.175249845,2.69866766 0.105149696,2.50057143 C0.0350495483,2.3024752 0,2.07619175 0,1.82171429 L0,1.60228571 C0,1.34933207 0.0315831095,1.12342957 0.0947502759,0.924571429 C0.157917442,0.725713291 0.248815172,0.557714971 0.367446192,0.420571429 C0.486077212,0.283427886 0.630897324,0.179047977 0.801910872,0.107428571 C0.97292442,0.0358091657 1.167045,0 1.38427842,0 C1.58918655,0 1.76790073,0.0262854514 1.92042632,0.0788571429 C2.07295192,0.131428834 2.20159532,0.204951909 2.30636038,0.299428571 C2.41112543,0.393905234 2.49354964,0.506285063 2.55363549,0.636571429 C2.61372133,0.766857794 2.65377795,0.909713509 2.67380657,1.06514286 L2.10068295,1.06514286 C2.08681698,0.97828528 2.06370739,0.89828608 2.03135348,0.825142857 C1.99899956,0.751999634 1.95470618,0.688762171 1.89847199,0.635428571 C1.84223781,0.582094971 1.77290903,0.540190629 1.69048358,0.509714286 C1.60805813,0.479237943 1.50984237,0.464 1.39583333,0.464 C1.25871436,0.464 1.13969996,0.489142606 1.03878656,0.539428571 C0.937873162,0.589714537 0.85390831,0.663237611 0.786889487,0.76 C0.719870664,0.856762389 0.66979988,0.975618343 0.636675635,1.11657143 C0.603551389,1.25752451 0.586989514,1.41790386 0.586989514,1.59771429 L0.586989514,1.82171429 C0.586989514,2.00457234 0.607017828,2.16647549 0.647075055,2.30742857 C0.687132283,2.44838166 0.744521104,2.56685666 0.81924324,2.66285714 C0.893965375,2.75885762 0.984863105,2.83199975 1.09193916,2.88228571 C1.19901521,2.93257168 1.32034057,2.95771429 1.45591887,2.95771429 C1.55606194,2.95771429 1.64195259,2.95123816 1.71359341,2.93828571 C1.78523422,2.92533327 1.84570432,2.90895248 1.89500552,2.88914286 C1.94430672,2.86933323 1.98474851,2.84761917 2.01633209,2.824 C2.04791567,2.80038083 2.07372139,2.77790487 2.09375,2.75657143 L2.09375,2.10514286 L1.4004553,2.10514286 L1.4004553,1.66628571 L2.67611755,1.66628571 L2.67611755,2.94171429 Z M5.28521661,1.888 L3.90324917,1.888 L3.90324917,2.912 L5.51862583,2.912 L5.51862583,3.37371429 L3.31857064,3.37371429 L3.31857064,0.0457142857 L5.50244895,0.0457142857 L5.50244895,0.512 L3.90324917,0.512 L3.90324917,1.43085714 L5.28521661,1.43085714 L5.28521661,1.888 Z M8.42584161,0.512 L7.37665563,0.512 L7.37665563,3.37371429 L6.79659906,3.37371429 L6.79659906,0.512 L5.75665701,0.512 L5.75665701,0.0457142857 L8.42584161,0.0457142857 L8.42584161,0.512 Z M10.6628725,3.37371429 L10.080505,3.37371429 L10.080505,0.0457142857 L10.6628725,0.0457142857 L10.6628725,3.37371429 Z M13.8127414,0.512 L12.7635555,0.512 L12.7635555,3.37371429 L12.1834989,3.37371429 L12.1834989,0.512 L11.1435568,0.512 L11.1435568,0.0457142857 L13.8127414,0.0457142857 L13.8127414,0.512 Z M18.1181015,1.79657143 C18.1181015,2.04952507 18.0845926,2.27618947 18.0175738,2.47657143 C17.950555,2.67695338 17.8561908,2.84685645 17.7344785,2.98628571 C17.6127661,3.12571498 17.4664054,3.23276153 17.2953918,3.30742857 C17.1243783,3.38209561 16.9348796,3.41942857 16.7268902,3.41942857 C16.5204414,3.41942857 16.3317131,3.38209561 16.1606995,3.30742857 C15.989686,3.23276153 15.8421697,3.12571498 15.7181464,2.98628571 C15.594123,2.84685645 15.4978331,2.67695338 15.4292736,2.47657143 C15.3607141,2.27618947 15.3264349,2.04952507 15.3264349,1.79657143 L15.3264349,1.62742857 C15.3264349,1.37447493 15.3607141,1.14742958 15.4292736,0.946285714 C15.4978331,0.745141851 15.5933527,0.574476891 15.7158354,0.434285714 C15.8383181,0.294094537 15.985064,0.18666704 16.1560775,0.112 C16.3270911,0.03733296 16.5158194,0 16.7222682,0 C16.9302577,0 17.1201415,0.03733296 17.2919254,0.112 C17.4637092,0.18666704 17.6108403,0.294094537 17.733323,0.434285714 C17.8558057,0.574476891 17.950555,0.745141851 18.0175738,0.946285714 C18.0845926,1.14742958 18.1181015,1.37447493 18.1181015,1.62742857 L18.1181015,1.79657143 Z M17.533423,1.62285714 C17.533423,1.43695145 17.5153205,1.27276262 17.4791149,1.13028571 C17.4429094,0.987808811 17.3901425,0.868571909 17.3208126,0.772571429 C17.2514828,0.676570949 17.1663625,0.603809771 17.0654491,0.554285714 C16.9645357,0.504761657 16.8501432,0.48 16.7222682,0.48 C16.5974745,0.48 16.4850079,0.504761657 16.3848648,0.554285714 C16.2847217,0.603809771 16.1996014,0.676570949 16.1295012,0.772571429 C16.0594011,0.868571909 16.0054787,0.987808811 15.9677325,1.13028571 C15.9299862,1.27276262 15.9111134,1.43695145 15.9111134,1.62285714 L15.9111134,1.79657143 C15.9111134,1.98247712 15.9299862,2.1470469 15.9677325,2.29028571 C16.0054787,2.43352453 16.0597863,2.55352333 16.1306567,2.65028571 C16.2015272,2.7470481 16.2874179,2.82019023 16.3883313,2.86971429 C16.4892447,2.91923834 16.6020965,2.944 16.7268902,2.944 C16.9857215,2.944 17.1848491,2.84647717 17.3242791,2.65142857 C17.4637091,2.45637998 17.533423,2.17143045 17.533423,1.79657143 L17.533423,1.62285714 Z M21.3696537,3.37371429 L20.7849752,3.37371429 L19.2851476,1.01257143 L19.2851476,3.37371429 L18.7004691,3.37371429 L18.7004691,0.0457142857 L19.2851476,0.0457142857 L20.7895971,2.416 L20.7895971,0.0457142857 L21.3696537,0.0457142857 L21.3696537,3.37371429 Z" id="GET-IT-ON"></path>
                    </g>
                </g>
                <rect id="Rectangle" stroke="#979797" stroke-width="0.5" x="0.25" y="0.25" width="82.5" height="23.5" rx="2"></rect>
            </g>
        </g>
    </g>
</svg>