<?xml version="1.0" encoding="UTF-8"?>
<svg width="100px" height="96px" viewBox="0 0 100 96" version="1.1" xmlns="http://www.w3.org/2000/svg" xmlns:xlink="http://www.w3.org/1999/xlink">
    <title>Users</title>
    <g id="🖥-Website" stroke="none" stroke-width="1" fill="none" fill-rule="evenodd">
        <g id="Home--Redesign" transform="translate(-239.000000, -5125.000000)">
            <g id="Metrics-Section" transform="translate(0.000000, 4905.000000)">
                <g id="Group-5" transform="translate(160.000000, 120.000000)">
                    <g id="Users" transform="translate(79.000000, 100.000000)">
                        <rect id="Rectangle" fill="#D0DCDF" x="0" y="0" width="99.4979757" height="96" rx="10"></rect>
                        <g id="Group" transform="translate(23.000000, 28.000000)" fill="#124E5D" fill-rule="nonzero">
                            <path d="M49.0909091,12.0588235 C45.5318182,12.0588235 43.5436364,15.5317647 44.3536364,18.1123529 L35.64,26.6982353 C34.9036364,26.4811765 33.8236364,26.4811765 33.0872727,26.6982353 L26.8281818,20.5482353 C27.6627273,17.9676471 25.6745455,14.4705882 22.0909091,14.4705882 C18.5318182,14.4705882 16.5190909,17.9435294 17.3536364,20.5482353 L6.16090909,31.5217647 C3.53454545,30.7258824 0,32.6794118 0,36.1764706 C0,38.8294118 2.20909091,41 4.90909091,41 C8.46818182,41 10.4563636,37.5270588 9.64636364,34.9464706 L20.8145455,23.9488235 C21.5509091,24.1658824 22.6309091,24.1658824 23.3672727,23.9488235 L29.6263636,30.0988235 C28.7918182,32.6794118 30.78,36.1764706 34.3636364,36.1764706 C37.9227273,36.1764706 39.9354545,32.7035294 39.1009091,30.0988235 L47.8390909,21.5370588 C50.4654545,22.3329412 54,20.3794118 54,16.8823529 C54,14.2294118 51.7909091,12.0588235 49.0909091,12.0588235 Z" id="Path"></path>
                            <polygon id="Path" points="34.3636364 14.4705882 36.6709091 9.47823529 41.7272727 7.23529412 36.6709091 4.99235294 34.3636364 0 32.1054545 4.99235294 27 7.23529412 32.1054545 9.47823529"></polygon>
                            <polygon id="Path" points="6.13636364 19.2941176 7.36363636 14.4705882 12.2727273 13.2647059 7.36363636 12.0588235 6.13636364 7.23529412 4.90909091 12.0588235 0 13.2647059 4.90909091 14.4705882"></polygon>
                        </g>
                    </g>
                </g>
            </g>
        </g>
    </g>
</svg>