<?xml version="1.0" encoding="UTF-8"?>
<svg width="55px" height="57px" viewBox="0 0 55 57" version="1.1" xmlns="http://www.w3.org/2000/svg" xmlns:xlink="http://www.w3.org/1999/xlink">
    <title>Group</title>
    <g id="🖥-Website" stroke="none" stroke-width="1" fill="none" fill-rule="evenodd">
        <g id="Home--Redesign" transform="translate(-1078.000000, -1108.000000)">
            <g id="Solutions-Section" transform="translate(-1.000000, 920.000000)">
                <g id="Group-3" transform="translate(160.000000, 150.000000)">
                    <g id="Card-3" transform="translate(880.000000, 0.000000)">
                        <g id="Group" transform="translate(40.000000, 38.000000)">
                            <g id="Group-3" transform="translate(0.000000, 3.000000)">
                                <path d="M28.0768,53 L3.9232,53 C1.75644444,53 0,51.3321722 0,49.2749106 L0,3.72491072 C0,1.66773843 1.75644444,0 3.9232,0 L28.0768,0 C30.2435556,0 32,1.66773843 32,3.72491072 L32,49.2749106 C32,51.3321722 30.2435556,53 28.0768,53 Z" id="Path-Copy-9" stroke="#4E7B86" stroke-width="1.24444444" stroke-linecap="round" stroke-linejoin="round"></path>
                                <polygon id="Path-Copy-8" stroke="#4E7B86" stroke-width="1.24444444" stroke-linecap="round" stroke-linejoin="round" points="32 6.70276613 0 6.70276613 0 47.9336067 32 47.9336067"></polygon>
                                <path d="M16.3552,51.5995394 C17.016,51.5995394 17.5518222,51.0908984 17.5518222,50.4634076 C17.5518222,49.8359169 17.016,49.3270972 16.3552,49.3270972 C15.6942222,49.3270972 15.1585778,49.8359169 15.1585778,50.4634076 C15.1585778,51.0908984 15.6942222,51.5995394 16.3552,51.5995394 Z" id="Path-Copy-7" fill="#4E7B86" fill-rule="nonzero"></path>
                                <path d="M21.3452444,4.2868107 C21.7192889,4.2868107 22.0225778,4.02766472 22.0225778,3.70811092 C22.0225778,3.38855711 21.7192889,3.12941113 21.3452444,3.12941113 C20.9710222,3.12941113 20.6677333,3.38855711 20.6677333,3.70811092 C20.6677333,4.02766472 20.9710222,4.2868107 21.3452444,4.2868107 Z" id="Path-Copy-6" fill="#4E7B86" fill-rule="nonzero"></path>
                                <line x1="9.97688889" y1="3.70811092" x2="16.8801778" y2="3.70811092" id="Path-Copy-5" stroke="#4E7B86" stroke-width="1.24444444" stroke-linecap="round" stroke-linejoin="round"></line>
                                <line x1="9.81742222" y1="9.67097059" x2="4.49564444" y2="14.2169273" id="Path-Copy-4" stroke="#4E7B86" stroke-width="1.24444444" stroke-linecap="round" stroke-linejoin="round"></line>
                                <line x1="10.8005333" y1="11.9439489" x2="7.48408889" y2="14.77704" id="Path-Copy-3" stroke="#4E7B86" stroke-width="1.24444444" stroke-linecap="round" stroke-linejoin="round"></line>
                                <polygon id="Path-Copy-2" fill="#4E7B86" fill-rule="nonzero" points="10.4126222 26.9199059 15.7459556 32.3932477 14.2222222 33.9570597 8.88888889 28.4837178"></polygon>
                                <polygon id="Path-Copy" fill="#4E7B86" fill-rule="nonzero" points="14.2222222 30.8294357 23.3651556 21.446564 24.8888889 23.010376 15.7459556 32.3932477"></polygon>
                            </g>
                        </g>
                    </g>
                </g>
            </g>
        </g>
    </g>
</svg>