<?xml version="1.0" encoding="UTF-8"?>
<svg width="100px" height="96px" viewBox="0 0 100 96" version="1.1" xmlns="http://www.w3.org/2000/svg" xmlns:xlink="http://www.w3.org/1999/xlink">
    <title>Country</title>
    <defs>
        <polygon id="path-1" points="27 38.8575 40.905 47.25 37.215 31.4325 49.5 20.79 33.3225 19.4175 27 4.5 20.6775 19.4175 4.5 20.79 16.785 31.4325 13.095 47.25"></polygon>
    </defs>
    <g id="🖥-Website" stroke="none" stroke-width="1" fill="none" fill-rule="evenodd">
        <g id="Home--Redesign" transform="translate(-1120.000000, -5125.000000)">
            <g id="Metrics-Section" transform="translate(0.000000, 4905.000000)">
                <g id="Group-5" transform="translate(160.000000, 120.000000)">
                    <g id="Country" transform="translate(960.000000, 100.000000)">
                        <rect id="Rectangle" fill="#D0DCDF" x="0" y="0" width="99.4979757" height="96" rx="10"></rect>
                        <g id="Icons-/-star-24px" transform="translate(23.000000, 21.000000)">
                            <polygon id="Path" points="0 0 54 0 54 54 0 54"></polygon>
                            <mask id="mask-2" fill="white">
                                <use xlink:href="#path-1"></use>
                            </mask>
                            <use id="Path" fill="#000000" fill-rule="nonzero" xlink:href="#path-1"></use>
                            <polygon id="Colours" fill="#124E5D" mask="url(#mask-2)" points="0 0 54 0 54 54 0 54"></polygon>
                        </g>
                    </g>
                </g>
            </g>
        </g>
    </g>
</svg>