<svg width="24" height="24" viewBox="0 0 24 24" fill="none" xmlns="http://www.w3.org/2000/svg">
<path d="M12 23C18.0751 23 23 18.0751 23 12C23 5.92487 18.0751 1 12 1C5.92487 1 1 5.92487 1 12C1 18.0751 5.92487 23 12 23Z" stroke="#E7EDEF" stroke-width="1.10526"/>
<path d="M1 12H23" stroke="#E7EDEF" stroke-width="1.10526"/>
<path d="M12 1V23" stroke="#E7EDEF" stroke-width="1.10526"/>
<path d="M12.0273 1.01941C13.7279 2.30088 15.1076 3.9598 16.0577 5.86543C17.0078 7.77105 17.5024 9.8713 17.5024 12.0006C17.5024 14.13 17.0078 16.2302 16.0577 18.1359C15.1076 20.0415 13.7279 21.7004 12.0273 22.9819" stroke="#E7EDEF" stroke-width="1.10526"/>
<path d="M11.975 22.9819C10.2745 21.7004 8.89476 20.0415 7.94465 18.1359C6.99454 16.2302 6.5 14.13 6.5 12.0006C6.5 9.8713 6.99454 7.77105 7.94465 5.86543C8.89476 3.9598 10.2745 2.30088 11.975 1.01941" stroke="#E7EDEF" stroke-width="1.10526"/>
<path d="M19.2082 4.56738C17.0166 5.83276 14.5304 6.49893 11.9996 6.49893C9.46888 6.49893 6.98271 5.83276 4.79102 4.56738" stroke="#E7EDEF" stroke-width="1.10526" stroke-linecap="square"/>
<path d="M4.79102 19.4315C6.98271 18.1662 9.46888 17.5 11.9996 17.5C14.5304 17.5 17.0166 18.1662 19.2082 19.4315" stroke="#E7EDEF" stroke-width="1.10526" stroke-linecap="square"/>
</svg>
