<?xml version="1.0" encoding="UTF-8"?>
<svg width="48px" height="48px" viewBox="0 0 48 48" version="1.1" xmlns="http://www.w3.org/2000/svg" xmlns:xlink="http://www.w3.org/1999/xlink">
    <title>Icon</title>
    <g id="🖥-Website" stroke="none" stroke-width="1" fill="none" fill-rule="evenodd">
        <g id="Home--Redesign" transform="translate(-831.000000, -3911.000000)" fill="#FEFEFE" fill-rule="nonzero">
            <g id="Industries-Section" transform="translate(0.000000, 3643.000000)">
                <g id="Group-4" transform="translate(811.000000, 80.000000)">
                    <g id="Industry-Card-Copy-3" transform="translate(0.000000, 168.000000)">
                        <g id="Group-17" transform="translate(20.000000, 20.000000)">
                            <g id="Vector-(4)" transform="translate(2.000000, 2.000000)">
                                <path d="M44,17.377404 C44,17.322932 43.99318,17.270638 43.98284,17.219928 L43.98284,11.402468 C43.98306,11.361218 43.97888,11.3201 43.97272,11.279378 C43.97118,11.270226 43.96986,11.261184 43.9681,11.252296 C43.96084,11.214412 43.9516,11.176924 43.93906,11.140514 C43.93774,11.136884 43.93598,11.133496 43.93466,11.129998 C43.9263,11.10736 43.9175,11.084832 43.90694,11.06314 L40.12536,3.272412 L40.12536,1.847472 C40.12536,0.8287532 39.43016,0 38.57546,0 L26.52628,0 C25.6718,0 24.9766,0.8287532 24.9766,1.847472 L24.9766,3.27404 L21.195812,11.06314 C21.185736,11.084018 21.177376,11.1056 21.169214,11.127446 C21.16741,11.132154 21.165144,11.136598 21.16345,11.141328 C21.15102,11.177056 21.141956,11.213862 21.13485,11.251064 C21.132914,11.26092 21.13144,11.270754 21.129856,11.280742 C21.123872,11.320364 21.119802,11.360404 21.119692,11.400598 L21.119692,11.40073 L21.119692,17.377536 L21.119692,27.85684 L18.796228,27.85684 L18.796228,22.0935 C18.796228,20.55746 18.302636,19.103942 17.406136,18.000686 C16.718218,17.15373 16.41123,16.474106 16.347672,15.61109 L16.35051,15.61109 C16.66291,15.61109 16.916042,15.309228 16.916042,14.936988 L16.916042,12.365914 C16.916042,11.468952 16.303782,10.739146 15.551272,10.739146 L11.537548,10.739146 C10.785038,10.739146 10.172778,11.468952 10.172778,12.365914 L10.172778,14.936988 C10.172778,15.309228 10.425932,15.61109 10.738332,15.61109 L10.79375,15.61109 C10.730302,16.474106 10.423314,17.15373 9.735176,18.000554 C8.838676,19.103942 8.345084,20.55746 8.345084,22.0935 L8.345084,27.85684 L6.172848,27.85684 C3.945986,27.85684 2.1344532,30.01636 2.1344532,32.67066 L2.1344532,39.69438 L2.0949786,39.69438 C0.9399236,39.69416 0,40.81462 0,42.19138 L0,43.31206 C0,43.6843 0.2531342,43.98614 0.5655386,43.98614 L29.11458,43.98614 L29.11458,44 L43.41722,44 C43.72962,44 43.98284,43.69816 43.98284,43.32592 L43.98284,37.477 C43.99318,37.4264 44,37.37404 44,37.31948 L44,17.377404 L44,17.377404 Z M22.25102,12.074832 L35.13686,12.074832 L35.13686,16.703434 L22.25102,16.703434 L22.25102,12.074832 Z M39.55996,4.799542 L42.4369,10.726606 L36.68302,10.726606 L39.55996,4.799542 Z M36.26788,18.051528 L42.85182,18.051528 L42.85182,36.6454 L36.26788,36.6454 L36.26788,18.051528 Z M36.26788,16.703302 L36.26788,12.0747 L42.85182,12.0747 L42.85182,16.703302 L36.26788,16.703302 Z M26.10762,1.847472 C26.10762,1.572164 26.2955,1.348226 26.52628,1.348226 L38.57546,1.348226 C38.80646,1.348226 38.99434,1.572164 38.99434,1.847472 L38.99434,2.780844 L26.10762,2.780844 L26.10762,1.847472 Z M25.86826,4.129202 L38.57854,4.129202 L35.37622,10.726606 L22.66616,10.726606 L25.86826,4.129202 Z M22.25102,18.051528 L35.13686,18.051528 L35.13686,36.6454 L27.88082,36.6454 L27.88082,32.81256 C28.14812,32.86866 28.4196,32.8977 28.69394,32.8977 C31.2609,32.8977 33.34936,30.4084 33.34936,27.34842 C33.34936,24.28844 31.2609,21.799184 28.69394,21.799184 C26.12698,21.799184 24.03852,24.28844 24.03852,27.34842 C24.03852,27.52112 24.04754,27.69294 24.06074,27.8641 C23.98836,27.85948 23.91576,27.85684 23.8425,27.85684 L22.2508,27.85684 L22.2508,18.051528 L22.25102,18.051528 Z M23.8425,29.205 C25.44564,29.205 26.7498,30.75952 26.7498,32.67044 L26.7498,39.69416 L19.495344,39.69416 L19.495344,32.67044 C19.495344,31.3104 19.018934,30.08126 18.255578,29.205 L23.8425,29.205 Z M25.16954,27.34842 C25.16954,25.03204 26.75068,23.1473 28.69394,23.1473 C30.6372,23.1473 32.21834,25.03204 32.21834,27.34842 C32.21834,29.6648 30.6372,31.54954 28.69394,31.54954 C28.36658,31.54954 28.04516,31.49366 27.73452,31.38894 C27.38692,29.89162 26.4473,28.68448 25.23532,28.15208 C25.19264,27.88852 25.16954,27.61968 25.16954,27.34842 Z M11.303754,12.365782 C11.303754,12.21209 11.408606,12.08724 11.537438,12.08724 L15.551162,12.08724 C15.680104,12.08724 15.784846,12.212222 15.784846,12.365782 L15.784846,14.262732 L11.303754,14.262732 L11.303754,12.365782 Z M10.547636,18.938392 C11.21802,18.113128 11.841236,17.13756 11.92686,15.610958 L15.214452,15.610958 C15.300076,17.13756 15.923292,18.113128 16.593676,18.938392 C17.284542,19.788978 17.665142,20.909482 17.665142,22.09328 L17.665142,27.85684 L15.457068,27.85684 L9.476038,27.85684 L9.476038,22.09328 C9.476038,20.90935 9.85666,19.788846 10.547636,18.938392 Z M3.265526,32.67044 C3.265526,30.75952 4.569774,29.205 6.172848,29.205 L8.669012,29.205 L15.456958,29.205 C17.060032,29.205 18.364258,30.75952 18.364258,32.67044 L18.364258,39.69416 L3.265526,39.69416 L3.265526,32.67044 Z M28.54896,42.6382 L1.1310772,42.6382 L1.1310772,42.1916 C1.1310772,41.558 1.5634872,41.04254 2.0949786,41.04254 L27.58492,41.04254 C28.11644,41.04254 28.54896,41.558 28.54896,42.1916 L28.54896,42.6382 L28.54896,42.6382 Z M27.88082,39.7221 L27.88082,37.99356 L35.13686,37.99356 L35.13686,42.65184 L29.6802,42.65184 L29.6802,42.19138 C29.6802,40.93452 28.89612,39.89414 27.88082,39.7221 Z M36.26788,42.65184 L36.26788,37.99356 L42.85182,37.99356 L42.85182,42.65184 L36.26788,42.65184 Z" id="Shape"></path>
                            </g>
                        </g>
                    </g>
                </g>
            </g>
        </g>
    </g>
</svg>