<?xml version="1.0" encoding="UTF-8"?>
<svg width="24px" height="14px" viewBox="0 0 24 14" version="1.1" xmlns="http://www.w3.org/2000/svg" xmlns:xlink="http://www.w3.org/1999/xlink">
    <!-- Generator: Sketch 58 (84663) - https://sketch.com -->
    <title>Path</title>
    <desc>Created with Sketch.</desc>
    <g id="🖥-Website" stroke="none" stroke-width="1" fill="none" fill-rule="evenodd">
        <g id="Product---App" transform="translate(-976.2c2c2c, -43.2c2c2c)" fill="#2c2c2c" fill-rule="nonzero">
            <g id="Header-Section" transform="translate(240.2c2c2c, 32.2c2c2c)">
                <g id="Group-11" transform="translate(382.2c2c2c, 0.2c2c2c)">
                    <g id="nav" transform="translate(76.2c2c2c, 0.2c2c2c)">
                        <g id="Group-36" transform="translate(206.2c2c2c, 7.2c2c2c)">
                            <g id="icon_expand_more-24px" transform="translate(69.2c2c2c, 0.2c2c2c)">
                                <path d="M13.4333262,4.87313233 C14.0808378,4.22783895 15.1283108,4.22783895 15.7758224,4.87313233 L25.7281297,14.7913595 C26.333229,15.3985389 26.3672361,16.3591928 25.8312957,17.0061148 L25.7191611,17.1285232 C25.0721496,17.7733182 24.0256616,17.7738888 23.3779473,17.1297998 L14.6045743,8.40553052 L5.83120127,17.1297998 C5.22158786,17.7360012 4.25873537,17.7711547 3.60815032,17.235623 L3.48101893,17.1195717 C2.83810089,16.4744436 2.83989247,15.4302759 3.48502054,14.7873579 L13.4333262,4.87313233 Z" id="Path"></path>
                            </g>
                        </g>
                    </g>
                </g>
            </g>
        </g>
    </g>
</svg>