<svg width="244" height="244" xmlns="http://www.w3.org/2000/svg" xmlns:xlink="http://www.w3.org/1999/xlink">
    <defs>
        <path d="M122 20.333C65.88 20.333 20.333 65.88 20.333 122c0 56.12 45.547 101.667 101.667 101.667 56.12 0 101.667-45.547 101.667-101.667 0-56.12-45.547-101.667-101.667-101.667zm-20.333 152.5L50.833 122l14.335-14.335 36.499 36.397 77.165-77.165 14.335 14.436-91.5 91.5z" id="a"/>
    </defs>
    <g fill="none" fill-rule="evenodd">
        <path d="M0 0h244v244H0z"/>
        <mask id="b" fill="#fff">
            <use xlink:href="#a"/>
        </mask>
        <path fill="#124E5D" mask="url(#b)" d="M0 0h244v244H0z"/>
    </g>
</svg>
