<?xml version="1.0" encoding="UTF-8"?>
<svg width="54px" height="63px" viewBox="0 0 54 63" version="1.1" xmlns="http://www.w3.org/2000/svg" xmlns:xlink="http://www.w3.org/1999/xlink">
    <title>Icon</title>
    <g id="🖥-Website" stroke="none" stroke-width="1" fill="none" fill-rule="evenodd">
        <g id="Home--Redesign" transform="translate(-639.000000, -1107.000000)" fill="#4E7B86" fill-rule="nonzero">
            <g id="Solutions-Section" transform="translate(-1.000000, 920.000000)">
                <g id="Group-3" transform="translate(160.000000, 150.000000)">
                    <g id="Card-Copy-2" transform="translate(440.000000, 0.000000)">
                        <g id="5355693_analysis_analytics_chart_data_document_icon" transform="translate(40.000000, 37.000000)">
                            <path d="M49.2725299,7.45545088 L46.8237178,6.94137889 L46.8237178,6.56750835 C46.8237178,4.63173024 45.2574741,3.06247203 43.3254146,3.06247203 L30.2417609,3.06247203 L17.4962765,0.0948746165 C16.5866318,-0.121586476 15.6283565,0.0357804546 14.8352756,0.531861318 C14.0421946,1.02794218 13.4803074,1.8214536 13.2749907,2.73533531 L13.2050246,3.05078858 L10.6745854,3.05078858 C8.74252591,3.05078858 7.17628224,4.62004679 7.17628224,6.55582489 L7.17628224,29.2100429 L2.09208169,51.3385055 C1.87955075,52.2482238 2.03832445,53.2053086 2.53314552,53.9972299 C3.0279666,54.7891513 3.81787726,55.3503594 4.72747005,55.5562326 L7.17628224,56.1287218 L7.17628224,56.4441751 C7.17628224,58.3799532 8.74252591,59.9492114 10.6745854,59.9492114 L23.8748492,59.9492114 L24.0031203,60.0076287 L36.5037235,62.9051254 C37.4133682,63.1215865 38.3716435,62.9642195 39.1647244,62.4681387 C39.9578054,61.9720578 40.5196926,61.1785464 40.7250093,60.2646647 L40.7949754,59.9492114 L43.3254146,59.9492114 C45.2574741,59.9492114 46.8237178,58.3799532 46.8237178,56.4441751 L46.8237178,33.7432232 L51.9079183,11.6731779 C52.1204493,10.7634597 51.9616756,9.80637483 51.4668545,9.01445352 C50.9720334,8.2225322 50.1821227,7.66132404 49.2725299,7.45545088 Z M7.17628224,53.6751964 L5.25221552,53.2195417 C4.9458919,53.1527935 4.67929267,52.9652836 4.51255514,52.699309 C4.34581761,52.4333343 4.29298639,52.1112985 4.36597873,51.8058437 L7.17628224,39.6550512 L7.17628224,53.6751964 Z M16.971531,2.37314822 L19.8751226,3.05078858 L15.6421758,3.05078858 C15.8643355,2.53338559 16.4233137,2.24844582 16.971531,2.37314822 Z M37.028469,60.580118 L34.1365384,59.9024776 L38.3578242,59.9024776 C38.1356645,60.4198806 37.5766863,60.7048204 37.028469,60.580118 Z M44.4915157,56.3857578 C44.4915157,57.0310172 43.9694344,57.5541033 43.3254146,57.5541033 L10.6745854,57.5541033 C10.0305656,57.5541033 9.50848433,57.0310172 9.50848433,56.3857578 L9.50848433,6.56750835 C9.50848433,5.92224898 10.0305656,5.39916291 10.6745854,5.39916291 L43.3254146,5.39916291 C43.9694344,5.39916291 44.4915157,5.92224898 44.4915157,6.56750835 L44.4915157,56.3857578 Z M49.6340213,11.1474225 L46.8237178,23.3566323 L46.8237178,9.27806976 L48.7477845,9.72204103 C49.0566697,9.78857742 49.3253879,9.97784386 49.4924422,10.246526 C49.6594965,10.5152082 49.7105869,10.840307 49.6340213,11.1474225 L49.6340213,11.1474225 Z" id="Shape"></path>
                            <path d="M39.8181818,50.6639712 L17.3636364,50.6639712 L17.3636364,41.1680144 C17.3636364,40.5229378 16.8345183,40 16.1818182,40 C15.529118,40 15,40.5229378 15,41.1680144 L15,51.8319856 C15,52.4770622 15.529118,53 16.1818182,53 L39.8181818,53 C40.470882,53 41,52.4770622 41,51.8319856 C41,51.1869091 40.470882,50.6639712 39.8181818,50.6639712 L39.8181818,50.6639712 Z" id="Path"></path>
                            <path d="M19.7093868,20 C22.3119628,20 24.4234504,17.8954266 24.4294471,15.2953804 C24.4228593,14.4212525 24.1703578,13.5665914 23.7007742,12.8289863 L25.6801543,10.8623901 C26.1066152,10.4363426 26.1066152,9.74558312 25.6801543,9.31953562 C25.2536934,8.89348813 24.5622637,8.89348813 24.1358028,9.31953561 L19.6985111,13.7525259 L17.2297237,11.2861318 C16.8055301,10.8648634 16.1204415,10.8648634 15.6962479,11.2861318 C15.2745708,11.7099142 15.2745708,12.3943387 15.6962479,12.8181211 L15.6962479,12.8181211 C15.2356333,13.5620382 14.9943824,14.4206612 15.0000993,15.2953804 C15.0000993,17.8936701 17.1085759,20 19.7093868,20 L19.7093868,20 Z M17.3276052,14.4478969 L18.9480867,16.0668076 C19.1506585,16.2675353 19.4240734,16.3806974 19.7093868,16.3818976 C19.983346,16.3723639 20.2435968,16.2598272 20.4380597,16.0668076 L22.0585412,14.4478969 C22.1530186,14.7207835 22.2043873,15.0067029 22.2108012,15.2953804 C22.1231862,16.6321865 21.0122904,17.6717143 19.6713218,17.6717143 C18.3303532,17.6717143 17.2194573,16.6321865 17.1318423,15.2953804 C17.1467844,15.0035944 17.2130509,14.7167178 17.3276052,14.4478969 L17.3276052,14.4478969 Z" id="Shape"></path>
                            <path d="M19.988407,33.9999867 C22.0117308,34.0046354 23.8384186,32.7894044 24.6159436,30.9214363 C25.3934686,29.0534683 24.9685444,26.9010269 23.5394857,25.4686701 C22.1104271,24.0363134 19.9589682,23.6064258 18.0892085,24.3796384 C16.2194489,25.1528511 15,26.9767278 15,29.0000537 C15.0063026,31.7543267 17.2341515,33.9873172 19.988407,33.9999867 L19.988407,33.9999867 Z M19.988407,26.3157404 C21.0808445,26.3111065 22.068092,26.9662056 22.4883046,27.9746001 C22.9085172,28.9829947 22.678608,30.145299 21.906131,30.9177747 C21.133654,31.6902505 19.9713479,31.9201593 18.9629517,31.4999474 C17.9545556,31.0797354 17.2994554,30.0924895 17.3040894,29.0000537 C17.3104249,27.520184 18.5085349,26.322076 19.988407,26.3157404 L19.988407,26.3157404 Z" id="Shape"></path>
                            <path d="M37.850548,36 L33.3446962,36 C32.7098713,36 32.1952442,36.4941769 32.1952442,37.1037751 C32.1952442,37.7133732 32.7098713,38.2075502 33.3446962,38.2075502 L35.0803687,38.2075502 L28.654932,44.4107662 L24.1375856,39.9956658 C23.6892563,39.5677062 22.9651876,39.5677062 22.5168583,39.9956658 L18.4018201,43.9582184 C18.0737939,44.2279699 17.9309104,44.6515199 18.0319148,45.0547296 C18.1329193,45.4579392 18.4607645,45.7727566 18.88066,45.8697473 C19.3005555,45.9667381 19.741633,45.8295324 20.0225475,45.5145413 L23.3329692,42.335669 L27.8388211,46.6735052 C28.0546498,46.8824638 28.3484449,47 28.654932,47 C28.961419,47 29.2552142,46.8824638 29.4710429,46.6735052 L36.701096,39.7749108 L36.701096,41.4305735 C36.701096,42.0401716 37.2157232,42.5343486 37.850548,42.5343486 C38.4853728,42.5343486 39,42.0401716 39,41.4305735 L39,37.1037751 C39,36.4941769 38.4853728,36 37.850548,36 Z" id="Path"></path>
                            <path d="M28.2718601,28 L33.7281399,28 C34.4305688,28 35,27.3284271 35,26.5 C35,25.6715729 34.4305688,25 33.7281399,25 L28.2718601,25 C27.5694312,25 27,25.6715729 27,26.5 C27,27.3284271 27.5694312,28 28.2718601,28 Z" id="Path"></path>
                            <path d="M28.2707722,33 L38.7292278,33 C39.4310559,33 40,32.3284271 40,31.5 C40,30.6715729 39.4310559,30 38.7292278,30 L28.2707722,30 C27.5689441,30 27,30.6715729 27,31.5 C27,32.3284271 27.5689441,33 28.2707722,33 Z" id="Path"></path>
                            <path d="M28.2718601,15 L33.7281399,15 C34.4305688,15 35,14.3284271 35,13.5 C35,12.6715729 34.4305688,12 33.7281399,12 L28.2718601,12 C27.5694312,12 27,12.6715729 27,13.5 C27,14.3284271 27.5694312,15 28.2718601,15 Z" id="Path"></path>
                            <path d="M28.2707722,20 L38.7292278,20 C39.4310559,20 40,19.3284271 40,18.5 C40,17.6715729 39.4310559,17 38.7292278,17 L28.2707722,17 C27.5689441,17 27,17.6715729 27,18.5 C27,19.3284271 27.5689441,20 28.2707722,20 Z" id="Path"></path>
                        </g>
                    </g>
                </g>
            </g>
        </g>
    </g>
</svg>