<svg width="24" height="24" viewBox="0 0 24 24" fill="none" xmlns="http://www.w3.org/2000/svg">
<path d="M12 23C18.0751 23 23 18.0751 23 12C23 5.92487 18.0751 1 12 1C5.92487 1 1 5.92487 1 12C1 18.0751 5.92487 23 12 23Z" stroke="#6C6C6C" stroke-width="1.10526"/>
<path d="M1 12H23" stroke="#6C6C6C" stroke-width="1.10526"/>
<path d="M12 1V23" stroke="#6C6C6C" stroke-width="1.10526"/>
<path d="M12.0273 1.01953C13.7279 2.301 15.1076 3.95992 16.0577 5.86555C17.0078 7.77117 17.5024 9.87142 17.5024 12.0008C17.5024 14.1301 17.0078 16.2304 16.0577 18.136C15.1076 20.0416 13.7279 21.7005 12.0273 22.982" stroke="#6C6C6C" stroke-width="1.10526"/>
<path d="M11.975 22.982C10.2745 21.7005 8.89476 20.0416 7.94465 18.136C6.99454 16.2304 6.5 14.1301 6.5 12.0008C6.5 9.87142 6.99454 7.77117 7.94465 5.86555C8.89476 3.95992 10.2745 2.301 11.975 1.01953" stroke="#6C6C6C" stroke-width="1.10526"/>
<path d="M19.2082 4.56738C17.0166 5.83276 14.5304 6.49893 11.9996 6.49893C9.46888 6.49893 6.98271 5.83276 4.79102 4.56738" stroke="#6C6C6C" stroke-width="1.10526" stroke-linecap="square"/>
<path d="M4.79102 19.4315C6.98271 18.1662 9.46888 17.5 11.9996 17.5C14.5304 17.5 17.0166 18.1662 19.2082 19.4315" stroke="#6C6C6C" stroke-width="1.10526" stroke-linecap="square"/>
</svg>
