<?xml version="1.0" encoding="UTF-8"?>
<svg width="26px" height="26px" viewBox="0 0 26 26" version="1.1" xmlns="http://www.w3.org/2000/svg" xmlns:xlink="http://www.w3.org/1999/xlink">
    <title>Icons / radio_button_checked_24px</title>
    <defs>
        <path d="M16,9.6 C12.4672,9.6 9.6,12.4672 9.6,16 C9.6,19.5328 12.4672,22.4 16,22.4 C19.5328,22.4 22.4,19.5328 22.4,16 C22.4,12.4672 19.5328,9.6 16,9.6 Z M16,3.2 C8.9344,3.2 3.2,8.9344 3.2,16 C3.2,23.0656 8.9344,28.8 16,28.8 C23.0656,28.8 28.8,23.0656 28.8,16 C28.8,8.9344 23.0656,3.2 16,3.2 Z M16,26.24 C10.3424,26.24 5.76,21.6576 5.76,16 C5.76,10.3424 10.3424,5.76 16,5.76 C21.6576,5.76 26.24,10.3424 26.24,16 C26.24,21.6576 21.6576,26.24 16,26.24 Z" id="path-1"></path>
    </defs>
    <g id="🖥-Website" stroke="none" stroke-width="1" fill="none" fill-rule="evenodd">
        <g id="Book-a-demo-Page--Step-Two" transform="translate(-1082.000000, -433.000000)">
            <g id="Group-20" transform="translate(161.000000, 374.000000)">
                <g id="Group-28" transform="translate(640.000000, 32.000000)">
                    <g id="Icons-/-radio_button_checked_24px" transform="translate(278.000000, 24.000000)">
                        <polygon id="Path" points="0 0 32 0 32 32 0 32"></polygon>
                        <mask id="mask-2" fill="white">
                            <use xlink:href="#path-1"></use>
                        </mask>
                        <g id="Shape" fill-rule="nonzero"></g>
                        <polygon id="Colour" fill="#124E5D" mask="url(#mask-2)" points="0 0 32 0 32 32 0 32"></polygon>
                    </g>
                </g>
            </g>
        </g>
    </g>
</svg>