<?xml version="1.0" encoding="UTF-8"?>
<svg width="26px" height="26px" viewBox="0 0 26 26" version="1.1" xmlns="http://www.w3.org/2000/svg" xmlns:xlink="http://www.w3.org/1999/xlink">
    <title>Icons / arrow_back-24px</title>
    <defs>
        <polygon id="path-1" points="12 5.25 2.8725 5.25 7.065 1.0575 6 0 0 6 6 12 7.0575 10.9425 2.8725 6.75 12 6.75"></polygon>
    </defs>
    <g id="🖥-Website" stroke="none" stroke-width="1" fill="none" fill-rule="evenodd">
        <g id="Workflow-Template-Detail" transform="translate(-159.000000, -151.000000)">
            <g id="Icons-/-arrow_back-24px" transform="translate(160.000000, 152.000000)">
                <circle id="icon_bg" stroke="#D3D3D3" stroke-width="0.5" opacity="0.699999988" cx="12" cy="12" r="12"></circle>
                <g id="icon_arrow_back-24px" transform="translate(3.000000, 3.000000)">
                    <polygon id="Path" points="0 0 18 0 18 18 0 18"></polygon>
                    <g id="Rectangle" transform="translate(3.000000, 3.000000)">
                        <mask id="mask-2" fill="white">
                            <use xlink:href="#path-1"></use>
                        </mask>
                        <use id="Mask" fill="#2C2C2C" fill-rule="nonzero" xlink:href="#path-1"></use>
                        <rect fill="#6C6C6C" mask="url(#mask-2)" x="-3" y="-3" width="18" height="18"></rect>
                    </g>
                </g>
            </g>
        </g>
    </g>
</svg>