<?xml version="1.0" encoding="UTF-8"?>
<svg width="14px" height="14px" viewBox="0 0 14 14" version="1.1" xmlns="http://www.w3.org/2000/svg" xmlns:xlink="http://www.w3.org/1999/xlink">
    <title>Icons / check_circle-24px</title>
    <defs>
        <path d="M14.6666667,3.45333333 L7.06,11.0666667 L4.23333333,8.24 L5.17333333,7.3 L7.06,9.18666667 L13.7266667,2.52 L14.6666667,3.45333333 Z M13.1933333,6.81333333 C13.28,7.19333333 13.3333333,7.59333333 13.3333333,8 C13.3333333,10.9466667 10.9466667,13.3333333 8,13.3333333 C5.05333333,13.3333333 2.66666667,10.9466667 2.66666667,8 C2.66666667,5.05333333 5.05333333,2.66666667 8,2.66666667 C9.05333333,2.66666667 10.0266667,2.97333333 10.8533333,3.5 L11.8133333,2.54 C10.7333333,1.78 9.42,1.33333333 8,1.33333333 C4.32,1.33333333 1.33333333,4.32 1.33333333,8 C1.33333333,11.68 4.32,14.6666667 8,14.6666667 C11.68,14.6666667 14.6666667,11.68 14.6666667,8 C14.6666667,7.20666667 14.52,6.44666667 14.2666667,5.74 L13.1933333,6.81333333 Z" id="path-1"></path>
    </defs>
    <g id="🖥-Website" stroke="none" stroke-width="1" fill="none" fill-rule="evenodd">
        <g id="Book-a-demo-Page-Copy-3" transform="translate(-177.000000, -523.000000)">
            <g id="Group-20" transform="translate(160.000000, 318.000000)">
                <g id="Group-13" transform="translate(0.000000, 144.000000)">
                    <g id="Icons-/-check_circle-24px" transform="translate(16.000000, 60.000000)">
                        <polygon id="Path" points="0 0 16 0 16 16 0 16"></polygon>
                        <mask id="mask-2" fill="white">
                            <use xlink:href="#path-1"></use>
                        </mask>
                        <use id="Mask" fill="#000000" fill-rule="nonzero" xlink:href="#path-1"></use>
                        <rect id="Rectangle" fill="#B8CACE" mask="url(#mask-2)" x="0" y="0" width="16" height="16"></rect>
                    </g>
                </g>
            </g>
        </g>
    </g>
</svg>