<?xml version="1.0" encoding="UTF-8"?>
<svg width="14px" height="14px" viewBox="0 0 14 14" version="1.1" xmlns="http://www.w3.org/2000/svg" xmlns:xlink="http://www.w3.org/1999/xlink">
    <title>Icons / star_rate-24px</title>
    <defs>
        <polygon id="path-1" points="9.62 6.66666667 8 1.33333333 6.38 6.66666667 1.33333333 6.66666667 5.45333333 9.60666667 3.88666667 14.6666667 8 11.54 12.12 14.6666667 10.5533333 9.60666667 14.6666667 6.66666667"></polygon>
    </defs>
    <g id="🖥-Website" stroke="none" stroke-width="1" fill="none" fill-rule="evenodd">
        <g id="Book-a-demo-Page-Copy-3" transform="translate(-223.000000, -981.000000)">
            <g id="Icons-/-star_rate-24px" transform="translate(222.000000, 980.000000)">
                <rect id="Rectangle" x="0" y="0" width="16" height="16"></rect>
                <mask id="mask-2" fill="white">
                    <use xlink:href="#path-1"></use>
                </mask>
                <g id="Path" fill-rule="nonzero"></g>
                <polygon id="Colours" fill="#124e5d" mask="url(#mask-2)" points="0 0 16 0 16 16 0 16"></polygon>
            </g>
        </g>
    </g>
</svg>